// Jest Snapshot v1, https://goo.gl/fbAQLP

exports[`InviteTalent/InvitationSentList should render InvitationsSentList correctly 1`] = `
<InvitationsSentList
  jobs={
    Array [
      Object {
        "_links": Object {
          "self": Object {
            "href": "http://localhost:4000/v2/jobs/afab75dafd1c63f8dc3a8d909be8ef4f",
          },
        },
        "address": Object {
          "block": "9",
          "building": "Sandcrawler",
          "floor": "8",
          "isOverseas": false,
          "postalCode": "738964",
          "street": "WOODLANDS AVENUE 9",
          "unit": "77",
        },
        "categories": Array [
          Object {
            "category": "Education and Training",
            "id": 10,
          },
          Object {
            "category": "Public / Civil Service",
            "id": 30,
          },
        ],
        "description": "<p><strong><span style=\\"text-decoration: underline;\\">Job Responsibilities</span></strong></p> <p>Manage a team of Technical Executives in:</p> <ul style=\\"list-style-type: disc;\\"> <li>Day to day operations of studios, workshops &amp; loan centre to support lecturers &amp; students in teaching and learning</li> <li>Set up and operation of audio-visual lighting systems and/or rigging for school-wide events</li> <li>Administration of good safety practices in compliance to QEHS (Quality Environment Health Safety), WSH (Workplace Safety and Health) policies and procedures, including working at heights</li> </ul> <p>Inventory and Asset Management:</p> <ul style=\\"list-style-type: disc;\\"> <li>Oversee overall maintenance, repair, scheduled servicing or replacement of audio, video &amp; lighting equipment, studio systems and computer systems for the school</li> <li>Maintain proper asset inventory records and documentation for internal/external audit</li> <li>Coordinate with vendors and suppliers on : <ul style=\\"list-style-type: circle;\\"> <li>Installation and integration of new equipment &amp; software</li> <li>Maintenance and repairs of existing equipment</li> <li>Receipt of purchased technical equipment and consumables</li> </ul> </li> </ul> <p><strong><span style=\\"text-decoration: underline;\\">Requirements </span></strong></p> <ul style=\\"list-style-type: disc;\\"> <li>Minimum eight (8) years relevant industry experience</li> <li>Proven track record in leadership with at least five (5) years&rsquo; experience in heading a team and/ or managing audio video facilities such as recording studios or equivalent set-ups</li> <li>Operational knowledge in studio/video/audio production and post-production</li> <li>Proficient in testing equipment for use in integration, installation, maintenance and repair of broadcast studio systems</li> <li>BizSafe certification, Work-at-Heights, Occupational First Aid will be an advantage</li> </ul>",
        "employmentTypes": Array [
          Object {
            "employmentType": "Full Time",
            "id": 8,
          },
        ],
        "hiringCompany": Object {
          "_links": Object {
            "self": Object {
              "href": "http://localhost:4000/v2/companies/T08GB0046G",
            },
          },
          "description": " <p style=\\"text-align: justify;\\">   <strong>About Republic Polytechnic</strong></p>  <p style=\\"margin: 0cm 0cm 0pt; text-align: justify;\\">   <span style=\\"font-size: 11pt;\\"><font color=\\"#000000\\" face=\\"Times New Roman\\">The first educational institution in Singapore to leverage the Problem-based Learning approach for all its diploma programmes, Republic Polytechnic (RP) has seven schools and one academic centre offering forty-two diplomas in Applied Science, Engineering, Management and Communication, Events and Hospitality, Infocomm, Sports, Health &amp; Leisure, and Technology for the Arts.</font></span></p>  <p style=\\"text-align: justify;\\">   <span style=\\"font-size: 11pt;\\"><font color=\\"#000000\\" face=\\"Times New Roman\\">In addition to offering full-time diploma courses, our Academy for Continuing Education @RP (ACE@RP) is committed to promoting lifelong learning among working adults.</font></span></p>  <p style=\\"text-align: justify;\\">   <span style=\\"font-size: 11pt;\\"><font color=\\"#000000\\" face=\\"Times New Roman\\">At Republic Polytechnic, you will discover a collaborative culture that supports your pursuit in nurturing learners to be problem-solvers with innovative and entrepreneurial minds. We believe in transforming not only the students but also yourself, as you seek and inspire life-long learning and acquisition of skills. As an organisation that scores many firsts, RP welcomes you to achieve your potential in our dynamic environment.</font></span></p>  <p style=\\"text-align: justify;\\">   <span style=\\"font-size: 11pt;\\"><font color=\\"#000000\\" face=\\"Times New Roman\\">For more information, please visit</font></span><font size=\\"3\\"><span style=\\"color: black; font-family: Roboto;\\"> </span></font><span style=\\"font-size: 11pt;\\"><font color=\\"#0000ff\\" face=\\"Times New Roman\\"><a href=\\"http://www.rp.edu.sg/careers\\">http://www.rp.edu.sg/careers</a></font></span><span style=\\"font-size:12px;\\"><span style=\\"font-family:arial,helvetica,sans-serif;\\"><span style=\\"color: rgb(0, 0, 0);\\">.</span></span></span></p>  ",
          "name": "Republic Polytechnic",
          "uen": "T08GB0046G",
        },
        "metadata": Object {
          "createdAt": "2018-03-27T07:15:18.000Z",
          "createdBy": "created-by-individual-id",
          "editCount": 0,
          "emailRecipient": "email-recipient-individual-id",
          "expiryDate": "2020-10-10",
          "isHideCompanyAddress": false,
          "isHideEmployerName": false,
          "isHideHiringEmployerName": false,
          "isHideSalary": false,
          "isPostedOnBehalf": false,
          "jobPostId": "JOB-2018-0015396",
          "newPostingDate": "2018-01-25",
          "originalPostingDate": "2018-01-25",
          "repostCount": 0,
          "totalNumberJobApplication": 9999,
          "totalNumberOfView": 1,
          "updatedAt": "2018-03-27T07:15:18.000Z",
        },
        "numberOfVacancies": 1,
        "positionLevels": Array [
          Object {
            "id": 1,
            "position": "Senior Management",
          },
        ],
        "postedCompany": Object {
          "_links": Object {
            "self": Object {
              "href": "http://localhost:4000/v2/companies/T08GB0046G",
            },
          },
          "description": " <p style=\\"text-align: justify;\\">   <strong>About Republic Polytechnic</strong></p>  <p style=\\"margin: 0cm 0cm 0pt; text-align: justify;\\">   <span style=\\"font-size: 11pt;\\"><font color=\\"#000000\\" face=\\"Times New Roman\\">The first educational institution in Singapore to leverage the Problem-based Learning approach for all its diploma programmes, Republic Polytechnic (RP) has seven schools and one academic centre offering forty-two diplomas in Applied Science, Engineering, Management and Communication, Events and Hospitality, Infocomm, Sports, Health &amp; Leisure, and Technology for the Arts.</font></span></p>  <p style=\\"text-align: justify;\\">   <span style=\\"font-size: 11pt;\\"><font color=\\"#000000\\" face=\\"Times New Roman\\">In addition to offering full-time diploma courses, our Academy for Continuing Education @RP (ACE@RP) is committed to promoting lifelong learning among working adults.</font></span></p>  <p style=\\"text-align: justify;\\">   <span style=\\"font-size: 11pt;\\"><font color=\\"#000000\\" face=\\"Times New Roman\\">At Republic Polytechnic, you will discover a collaborative culture that supports your pursuit in nurturing learners to be problem-solvers with innovative and entrepreneurial minds. We believe in transforming not only the students but also yourself, as you seek and inspire life-long learning and acquisition of skills. As an organisation that scores many firsts, RP welcomes you to achieve your potential in our dynamic environment.</font></span></p>  <p style=\\"text-align: justify;\\">   <span style=\\"font-size: 11pt;\\"><font color=\\"#000000\\" face=\\"Times New Roman\\">For more information, please visit</font></span><font size=\\"3\\"><span style=\\"color: black; font-family: Roboto;\\"> </span></font><span style=\\"font-size: 11pt;\\"><font color=\\"#0000ff\\" face=\\"Times New Roman\\"><a href=\\"http://www.rp.edu.sg/careers\\">http://www.rp.edu.sg/careers</a></font></span><span style=\\"font-size:12px;\\"><span style=\\"font-family:arial,helvetica,sans-serif;\\"><span style=\\"color: rgb(0, 0, 0);\\">.</span></span></span></p>  ",
          "name": "Republic Polytechnic Recruiter",
          "uen": "T08GB0046G",
        },
        "salary": Object {
          "maximum": 10000,
          "minimum": 0,
          "type": Object {
            "id": 4,
            "salaryType": "Monthly",
          },
        },
        "schemes": Array [],
        "skills": Array [
          Object {
            "skill": "Software Development",
            "uuid": "f287f429e4026672e5754c1201691e49",
          },
          Object {
            "skill": "Agile Methodologies",
            "uuid": "6342d6af2ccaa3545040f5de74760c3a",
          },
          Object {
            "skill": "Scrum",
            "uuid": "4db2c0d8fe4b4e96ecea3d51b4ffabfc",
          },
          Object {
            "skill": "Java",
            "uuid": "d52387880e1ea22817a72d3759213819",
          },
          Object {
            "skill": "Software Engineering",
            "uuid": "607c057459161394d748df802b30f07b",
          },
          Object {
            "skill": "Software Project Management",
            "uuid": "4db79737b608f5027bea0f7d16d11dcb",
          },
          Object {
            "skill": "Web Services",
            "uuid": "2c10282d2a9ce8be1576d7af8091d09e",
          },
          Object {
            "skill": "Business Analysis",
            "uuid": "52407ea0d2ca939ceb06bfc75001076e",
          },
          Object {
            "skill": "ERP",
            "uuid": "5202bfaff162a71345cc0f3dde1940a4",
          },
          Object {
            "skill": "Databases",
            "uuid": "ea2ef9b0d095bf991f4973633b485340",
          },
        ],
        "sourceCode": "Careers@Gov",
        "ssocCode": 2209,
        "status": Object {
          "id": 102,
          "jobStatus": "Open",
        },
        "title": "School of Technology for the Arts &amp; Manager (Technical)",
        "uuid": "INVITATION_NOT_SENT",
      },
      Object {
        "_links": Object {
          "self": Object {
            "href": "http://localhost:4000/v2/jobs/afab75dafd1c63f8dc3a8d909be8ef4f",
          },
        },
        "address": Object {
          "block": "9",
          "building": "Sandcrawler",
          "floor": "8",
          "isOverseas": false,
          "postalCode": "738964",
          "street": "WOODLANDS AVENUE 9",
          "unit": "77",
        },
        "categories": Array [
          Object {
            "category": "Education and Training",
            "id": 10,
          },
          Object {
            "category": "Public / Civil Service",
            "id": 30,
          },
        ],
        "description": "<p><strong><span style=\\"text-decoration: underline;\\">Job Responsibilities</span></strong></p> <p>Manage a team of Technical Executives in:</p> <ul style=\\"list-style-type: disc;\\"> <li>Day to day operations of studios, workshops &amp; loan centre to support lecturers &amp; students in teaching and learning</li> <li>Set up and operation of audio-visual lighting systems and/or rigging for school-wide events</li> <li>Administration of good safety practices in compliance to QEHS (Quality Environment Health Safety), WSH (Workplace Safety and Health) policies and procedures, including working at heights</li> </ul> <p>Inventory and Asset Management:</p> <ul style=\\"list-style-type: disc;\\"> <li>Oversee overall maintenance, repair, scheduled servicing or replacement of audio, video &amp; lighting equipment, studio systems and computer systems for the school</li> <li>Maintain proper asset inventory records and documentation for internal/external audit</li> <li>Coordinate with vendors and suppliers on : <ul style=\\"list-style-type: circle;\\"> <li>Installation and integration of new equipment &amp; software</li> <li>Maintenance and repairs of existing equipment</li> <li>Receipt of purchased technical equipment and consumables</li> </ul> </li> </ul> <p><strong><span style=\\"text-decoration: underline;\\">Requirements </span></strong></p> <ul style=\\"list-style-type: disc;\\"> <li>Minimum eight (8) years relevant industry experience</li> <li>Proven track record in leadership with at least five (5) years&rsquo; experience in heading a team and/ or managing audio video facilities such as recording studios or equivalent set-ups</li> <li>Operational knowledge in studio/video/audio production and post-production</li> <li>Proficient in testing equipment for use in integration, installation, maintenance and repair of broadcast studio systems</li> <li>BizSafe certification, Work-at-Heights, Occupational First Aid will be an advantage</li> </ul>",
        "employmentTypes": Array [
          Object {
            "employmentType": "Full Time",
            "id": 8,
          },
        ],
        "hiringCompany": Object {
          "_links": Object {
            "self": Object {
              "href": "http://localhost:4000/v2/companies/T08GB0046G",
            },
          },
          "description": " <p style=\\"text-align: justify;\\">   <strong>About Republic Polytechnic</strong></p>  <p style=\\"margin: 0cm 0cm 0pt; text-align: justify;\\">   <span style=\\"font-size: 11pt;\\"><font color=\\"#000000\\" face=\\"Times New Roman\\">The first educational institution in Singapore to leverage the Problem-based Learning approach for all its diploma programmes, Republic Polytechnic (RP) has seven schools and one academic centre offering forty-two diplomas in Applied Science, Engineering, Management and Communication, Events and Hospitality, Infocomm, Sports, Health &amp; Leisure, and Technology for the Arts.</font></span></p>  <p style=\\"text-align: justify;\\">   <span style=\\"font-size: 11pt;\\"><font color=\\"#000000\\" face=\\"Times New Roman\\">In addition to offering full-time diploma courses, our Academy for Continuing Education @RP (ACE@RP) is committed to promoting lifelong learning among working adults.</font></span></p>  <p style=\\"text-align: justify;\\">   <span style=\\"font-size: 11pt;\\"><font color=\\"#000000\\" face=\\"Times New Roman\\">At Republic Polytechnic, you will discover a collaborative culture that supports your pursuit in nurturing learners to be problem-solvers with innovative and entrepreneurial minds. We believe in transforming not only the students but also yourself, as you seek and inspire life-long learning and acquisition of skills. As an organisation that scores many firsts, RP welcomes you to achieve your potential in our dynamic environment.</font></span></p>  <p style=\\"text-align: justify;\\">   <span style=\\"font-size: 11pt;\\"><font color=\\"#000000\\" face=\\"Times New Roman\\">For more information, please visit</font></span><font size=\\"3\\"><span style=\\"color: black; font-family: Roboto;\\"> </span></font><span style=\\"font-size: 11pt;\\"><font color=\\"#0000ff\\" face=\\"Times New Roman\\"><a href=\\"http://www.rp.edu.sg/careers\\">http://www.rp.edu.sg/careers</a></font></span><span style=\\"font-size:12px;\\"><span style=\\"font-family:arial,helvetica,sans-serif;\\"><span style=\\"color: rgb(0, 0, 0);\\">.</span></span></span></p>  ",
          "name": "Republic Polytechnic",
          "uen": "T08GB0046G",
        },
        "metadata": Object {
          "createdAt": "2018-03-27T07:15:18.000Z",
          "createdBy": "created-by-individual-id",
          "editCount": 0,
          "emailRecipient": "email-recipient-individual-id",
          "expiryDate": "2020-10-10",
          "isHideCompanyAddress": false,
          "isHideEmployerName": false,
          "isHideHiringEmployerName": false,
          "isHideSalary": false,
          "isPostedOnBehalf": false,
          "jobPostId": "JOB-2018-0015396",
          "newPostingDate": "2018-01-25",
          "originalPostingDate": "2018-01-25",
          "repostCount": 0,
          "totalNumberJobApplication": 9999,
          "totalNumberOfView": 1,
          "updatedAt": "2018-03-27T07:15:18.000Z",
        },
        "numberOfVacancies": 1,
        "positionLevels": Array [
          Object {
            "id": 1,
            "position": "Senior Management",
          },
        ],
        "postedCompany": Object {
          "_links": Object {
            "self": Object {
              "href": "http://localhost:4000/v2/companies/T08GB0046G",
            },
          },
          "description": " <p style=\\"text-align: justify;\\">   <strong>About Republic Polytechnic</strong></p>  <p style=\\"margin: 0cm 0cm 0pt; text-align: justify;\\">   <span style=\\"font-size: 11pt;\\"><font color=\\"#000000\\" face=\\"Times New Roman\\">The first educational institution in Singapore to leverage the Problem-based Learning approach for all its diploma programmes, Republic Polytechnic (RP) has seven schools and one academic centre offering forty-two diplomas in Applied Science, Engineering, Management and Communication, Events and Hospitality, Infocomm, Sports, Health &amp; Leisure, and Technology for the Arts.</font></span></p>  <p style=\\"text-align: justify;\\">   <span style=\\"font-size: 11pt;\\"><font color=\\"#000000\\" face=\\"Times New Roman\\">In addition to offering full-time diploma courses, our Academy for Continuing Education @RP (ACE@RP) is committed to promoting lifelong learning among working adults.</font></span></p>  <p style=\\"text-align: justify;\\">   <span style=\\"font-size: 11pt;\\"><font color=\\"#000000\\" face=\\"Times New Roman\\">At Republic Polytechnic, you will discover a collaborative culture that supports your pursuit in nurturing learners to be problem-solvers with innovative and entrepreneurial minds. We believe in transforming not only the students but also yourself, as you seek and inspire life-long learning and acquisition of skills. As an organisation that scores many firsts, RP welcomes you to achieve your potential in our dynamic environment.</font></span></p>  <p style=\\"text-align: justify;\\">   <span style=\\"font-size: 11pt;\\"><font color=\\"#000000\\" face=\\"Times New Roman\\">For more information, please visit</font></span><font size=\\"3\\"><span style=\\"color: black; font-family: Roboto;\\"> </span></font><span style=\\"font-size: 11pt;\\"><font color=\\"#0000ff\\" face=\\"Times New Roman\\"><a href=\\"http://www.rp.edu.sg/careers\\">http://www.rp.edu.sg/careers</a></font></span><span style=\\"font-size:12px;\\"><span style=\\"font-family:arial,helvetica,sans-serif;\\"><span style=\\"color: rgb(0, 0, 0);\\">.</span></span></span></p>  ",
          "name": "Republic Polytechnic Recruiter",
          "uen": "T08GB0046G",
        },
        "salary": Object {
          "maximum": 10000,
          "minimum": 0,
          "type": Object {
            "id": 4,
            "salaryType": "Monthly",
          },
        },
        "schemes": Array [],
        "skills": Array [
          Object {
            "skill": "Software Development",
            "uuid": "f287f429e4026672e5754c1201691e49",
          },
          Object {
            "skill": "Agile Methodologies",
            "uuid": "6342d6af2ccaa3545040f5de74760c3a",
          },
          Object {
            "skill": "Scrum",
            "uuid": "4db2c0d8fe4b4e96ecea3d51b4ffabfc",
          },
          Object {
            "skill": "Java",
            "uuid": "d52387880e1ea22817a72d3759213819",
          },
          Object {
            "skill": "Software Engineering",
            "uuid": "607c057459161394d748df802b30f07b",
          },
          Object {
            "skill": "Software Project Management",
            "uuid": "4db79737b608f5027bea0f7d16d11dcb",
          },
          Object {
            "skill": "Web Services",
            "uuid": "2c10282d2a9ce8be1576d7af8091d09e",
          },
          Object {
            "skill": "Business Analysis",
            "uuid": "52407ea0d2ca939ceb06bfc75001076e",
          },
          Object {
            "skill": "ERP",
            "uuid": "5202bfaff162a71345cc0f3dde1940a4",
          },
          Object {
            "skill": "Databases",
            "uuid": "ea2ef9b0d095bf991f4973633b485340",
          },
        ],
        "sourceCode": "Careers@Gov",
        "ssocCode": 2209,
        "status": Object {
          "id": 102,
          "jobStatus": "Open",
        },
        "title": "School of Technology for the Arts &amp; Manager (Technical)",
        "uuid": "INVITATION_SENT",
      },
    ]
  }
  payload={
    Array [
      "INVITATION_SENT",
    ]
  }
>
  <ul
    className="list pl0 overflow-y-auto list"
  >
    <li
      className="pb2 flex"
      key="INVITATION_SENT"
    >
      <h3
        className="fw6 ma0 f4-5 lh-title pr1 dib"
      >
        –
      </h3>
      <div
        className="dib"
      >
        <h3
          className="fw6 ma0 f4-5 lh-title truncate"
        >
          School of Technology for the Arts &amp; Manager (Technical)
        </h3>
        <div
          className="db pt0 black-70 f6 lh-title"
        >
          JOB-2018-0015396
        </div>
      </div>
    </li>
  </ul>
</InvitationsSentList>
`;
