<svg xmlns="http://www.w3.org/2000/svg" xmlns:xlink="http://www.w3.org/1999/xlink" x="0px" y="0px" viewBox="0 0 24 24"><g  transform="translate(0, 0)">
<polyline fill="none"  stroke-linecap="square" stroke-miterlimit="10" points="2,12 9,19 22,6 
" stroke-linejoin="miter"/>
</g></svg>