// Jest Snapshot v1, https://goo.gl/fbAQLP

exports[`CandidateInfo/WorkExperiences should render WorkExperiences not more than the specified limit 1`] = `
<WorkExperiences
  limit={1}
  workExperiences={
    Array [
      Object {
        "companyName": "Some Company",
        "endDate": "2018-01-01T00:00:00.000",
        "jobDescription": "description",
        "jobTitle": "Some Job",
        "startDate": "2017-01-01T00:00:00.000",
      },
      Object {
        "companyName": "Some Company",
        "endDate": "2018-01-01T00:00:00.000",
        "jobDescription": "description",
        "jobTitle": "Some Job",
        "startDate": "2017-01-01T00:00:00.000",
      },
    ]
  }
>
  <div>
    <ul
      className="list pl0 ma0"
    >
      <li
        data-cy="work-experience-field"
        key="0"
      >
        <Experience
          description="description"
          location="Some Company"
          time="2017 - 2018"
          title="Some Job"
        >
          <div
            className="mb4 lh-copy f5"
          >
            <div
              className="black-40 f6"
              data-cy="experience-time"
            >
              2017 - 2018
            </div>
            <div>
              <div
                className="fw6 black-60 f4-5 mr3 dib"
                data-cy="experience-title"
              >
                Some Job
                 
                  
              </div>
            </div>
            <div
              className="black-50 f5-5"
              data-cy="experience-location"
            >
              Some Company
            </div>
            <p
              className="ma0 mt2 black-60"
              data-cy="experience-description"
            >
              description
            </p>
          </div>
        </Experience>
      </li>
    </ul>
  </div>
</WorkExperiences>
`;

exports[`CandidateInfo/WorkExperiences should render endDate as Present if endDate is undefined and startDate is defined 1`] = `
<WorkExperiences
  workExperiences={
    Array [
      Object {
        "companyName": "Some Company",
        "endDate": null,
        "jobDescription": "description",
        "jobTitle": "Some Job",
        "startDate": "2017-01-01T00:00:00.000",
      },
    ]
  }
>
  <div>
    <ul
      className="list pl0 ma0"
    >
      <li
        data-cy="work-experience-field"
        key="0"
      >
        <Experience
          description="description"
          location="Some Company"
          time="2017 - Present"
          title="Some Job"
        >
          <div
            className="mb4 lh-copy f5"
          >
            <div
              className="black-40 f6"
              data-cy="experience-time"
            >
              2017 - Present
            </div>
            <div>
              <div
                className="fw6 black-60 f4-5 mr3 dib"
                data-cy="experience-title"
              >
                Some Job
                 
                  
              </div>
            </div>
            <div
              className="black-50 f5-5"
              data-cy="experience-location"
            >
              Some Company
            </div>
            <p
              className="ma0 mt2 black-60"
              data-cy="experience-description"
            >
              description
            </p>
          </div>
        </Experience>
      </li>
    </ul>
  </div>
</WorkExperiences>
`;

exports[`CandidateInfo/WorkExperiences should render when optional values are not defined 1`] = `
<WorkExperiences
  workExperiences={
    Array [
      Object {
        "companyName": "Some Company",
        "endDate": null,
        "jobDescription": null,
        "jobTitle": "Some Job",
        "startDate": null,
      },
    ]
  }
>
  <div>
    <ul
      className="list pl0 ma0"
    >
      <li
        data-cy="work-experience-field"
        key="0"
      >
        <Experience
          location="Some Company"
          time="(Data unavailable)"
          title="Some Job"
        >
          <div
            className="mb4 lh-copy f5"
          >
            <div
              className="black-40 f6"
              data-cy="experience-time"
            >
              (Data unavailable)
            </div>
            <div>
              <div
                className="fw6 black-60 f4-5 mr3 dib"
                data-cy="experience-title"
              >
                Some Job
                 
                  
              </div>
            </div>
            <div
              className="black-50 f5-5"
              data-cy="experience-location"
            >
              Some Company
            </div>
          </div>
        </Experience>
      </li>
    </ul>
  </div>
</WorkExperiences>
`;
