// Jest Snapshot v1, https://goo.gl/fbAQLP

exports[`BlockStyleControls should render all buttons as inactive 1`] = `
<BlockStyleControls
  editorState="editorState cleaned by cleanDraftJS"
  onClick={[Function]}
>
  <TextEditorButton
    active={false}
    className="header-one"
    key="header-one"
    label="H1"
    onClick={[Function]}
  >
    <button
      className="mh2 header-one button "
      onClick={[Function]}
      onMouseDown={[Function]}
    >
      H1
    </button>
  </TextEditorButton>
  <TextEditorButton
    active={false}
    className="header-two"
    key="header-two"
    label="H2"
    onClick={[Function]}
  >
    <button
      className="mh2 header-two button "
      onClick={[Function]}
      onMouseDown={[Function]}
    >
      H2
    </button>
  </TextEditorButton>
  <TextEditorButton
    active={false}
    className="header-three"
    key="header-three"
    label="H3"
    onClick={[Function]}
  >
    <button
      className="mh2 header-three button "
      onClick={[Function]}
      onMouseDown={[Function]}
    >
      H3
    </button>
  </TextEditorButton>
  <TextEditorButton
    active={false}
    className="unordered-list-item"
    key="unordered-list-item"
    label=""
    onClick={[Function]}
  >
    <button
      className="mh2 unordered-list-item button "
      onClick={[Function]}
      onMouseDown={[Function]}
    />
  </TextEditorButton>
  <TextEditorButton
    active={false}
    className="ordered-list-item"
    key="ordered-list-item"
    label=""
    onClick={[Function]}
  >
    <button
      className="mh2 ordered-list-item button "
      onClick={[Function]}
      onMouseDown={[Function]}
    />
  </TextEditorButton>
</BlockStyleControls>
`;

exports[`BlockStyleControls should render h1 as active 1`] = `
<BlockStyleControls
  editorState="editorState cleaned by cleanDraftJS"
  onClick={[Function]}
>
  <TextEditorButton
    active={true}
    className="header-one"
    key="header-one"
    label="H1"
    onClick={[Function]}
  >
    <button
      className="mh2 header-one button active"
      onClick={[Function]}
      onMouseDown={[Function]}
    >
      H1
    </button>
  </TextEditorButton>
  <TextEditorButton
    active={false}
    className="header-two"
    key="header-two"
    label="H2"
    onClick={[Function]}
  >
    <button
      className="mh2 header-two button "
      onClick={[Function]}
      onMouseDown={[Function]}
    >
      H2
    </button>
  </TextEditorButton>
  <TextEditorButton
    active={false}
    className="header-three"
    key="header-three"
    label="H3"
    onClick={[Function]}
  >
    <button
      className="mh2 header-three button "
      onClick={[Function]}
      onMouseDown={[Function]}
    >
      H3
    </button>
  </TextEditorButton>
  <TextEditorButton
    active={false}
    className="unordered-list-item"
    key="unordered-list-item"
    label=""
    onClick={[Function]}
  >
    <button
      className="mh2 unordered-list-item button "
      onClick={[Function]}
      onMouseDown={[Function]}
    />
  </TextEditorButton>
  <TextEditorButton
    active={false}
    className="ordered-list-item"
    key="ordered-list-item"
    label=""
    onClick={[Function]}
  >
    <button
      className="mh2 ordered-list-item button "
      onClick={[Function]}
      onMouseDown={[Function]}
    />
  </TextEditorButton>
</BlockStyleControls>
`;
