// Jest Snapshot v1, https://goo.gl/fbAQLP

exports[`MainSideBar should render MainSideBar correctly 1`] = `
<MockedProvider
  addTypename={true}
>
  <ApolloProvider
    client="client cleaned by cleanClientProp"
  >
    <Provider
      store={
        Object {
          "clearActions": [Function],
          "dispatch": [Function],
          "getActions": [Function],
          "getState": [Function],
          "replaceReducer": [Function],
          "subscribe": [Function],
        }
      }
    >
      <MemoryRouter
        keyLength={0}
      >
        <Router
          key="ALL props cleaned by cleanRouter"
        >
          <MainSideBar>
            <div
              className="pa3 fixed sideBar"
              id="main-side-bar"
            >
              <div
                className="flex-column"
              >
                <CompanyDetailsContainer>
                  CompanyDetailsContainer
                </CompanyDetailsContainer>
                <div
                  className="pb3"
                >
                  <CreateJobPostingButton
                    dataCy="create-job-posting-button-sidebar"
                  >
                    <CreateJobPostingLink
                      className="db pr3 white fw6 no-underline lh-solid f6 bg-blue br-pill relative newJobPost"
                      dataCy="create-job-posting-button-sidebar"
                    >
                      <Link
                        className="db pr3 white fw6 no-underline lh-solid f6 bg-blue br-pill relative newJobPost"
                        data-cy="create-job-posting-button-sidebar"
                        to={
                          Object {
                            "pathname": "/jobs/new",
                            "state": Object {
                              "key": "randomString",
                            },
                          }
                        }
                      >
                        <LinkAnchor
                          className="db pr3 white fw6 no-underline lh-solid f6 bg-blue br-pill relative newJobPost"
                          data-cy="create-job-posting-button-sidebar"
                          href="/jobs/new"
                          navigate={[Function]}
                        >
                          <a
                            className="db pr3 white fw6 no-underline lh-solid f6 bg-blue br-pill relative newJobPost"
                            data-cy="create-job-posting-button-sidebar"
                            href="/jobs/new"
                            onClick={[Function]}
                          >
                            Create Job Posting
                          </a>
                        </LinkAnchor>
                      </Link>
                    </CreateJobPostingLink>
                  </CreateJobPostingButton>
                </div>
                <hr
                  className="divider w-90 center mb1"
                />
                <nav
                  className="relative pt3"
                >
                  <div
                    className="pb3"
                  >
                    <NavLink
                      activeClassName="selected"
                      className="no-underline relative gray"
                      isActive={[Function]}
                      onClick={[MockFunction]}
                      to="/jobs"
                    >
                      <Link
                        aria-current={null}
                        className="no-underline relative gray"
                        onClick={[MockFunction]}
                        to={
                          Object {
                            "hash": "",
                            "pathname": "/jobs",
                            "search": "",
                            "state": null,
                          }
                        }
                      >
                        <LinkAnchor
                          aria-current={null}
                          className="no-underline relative gray"
                          href="/jobs"
                          navigate={[Function]}
                          onClick={[MockFunction]}
                        >
                          <a
                            aria-current={null}
                            className="no-underline relative gray"
                            href="/jobs"
                            onClick={[Function]}
                          >
                            <div
                              className="ph3 pv1 pr5 fw6 f5 allJobs"
                              data-cy="all-jobs-label"
                            >
                              All Jobs
                            </div>
                          </a>
                        </LinkAnchor>
                      </Link>
                    </NavLink>
                  </div>
                  <div
                    className="pb3"
                  >
                    <NavLink
                      activeClassName="selected"
                      className="no-underline relative gray"
                      isActive={[Function]}
                      to="/talent-search"
                    >
                      <Link
                        aria-current={null}
                        className="no-underline relative gray"
                        to={
                          Object {
                            "hash": "",
                            "pathname": "/talent-search",
                            "search": "",
                            "state": null,
                          }
                        }
                      >
                        <LinkAnchor
                          aria-current={null}
                          className="no-underline relative gray"
                          href="/talent-search"
                          navigate={[Function]}
                        >
                          <a
                            aria-current={null}
                            className="no-underline relative gray"
                            href="/talent-search"
                            onClick={[Function]}
                          >
                            <div
                              className="ph3 pv1 pr5 fw6 f5 talentSearch"
                              data-cy="talent-search-label"
                            >
                              Talent Search
                            </div>
                          </a>
                        </LinkAnchor>
                      </Link>
                    </NavLink>
                  </div>
                </nav>
              </div>
            </div>
            <div
              className="pa3 sideBarDummy"
            />
          </MainSideBar>
        </Router>
      </MemoryRouter>
    </Provider>
  </ApolloProvider>
</MockedProvider>
`;
