// Jest Snapshot v1, https://goo.gl/fbAQLP

exports[`JobPosting/ScreeningQuestionsFields should disable remove button if theres only one question field 1`] = `
<ReactFinalForm
  initialValues={
    Object {
      "jobDescription": Object {
        "isThirdPartyEmployer": false,
        "thirdPartyEmployer": Object {},
      },
      "jobPostingSkills": Object {
        "addedSkills": Array [],
        "recommendedSkills": Array [],
      },
      "keyInformation": Object {
        "jobCategories": Array [],
        "newPostingDate": "2021-10-01",
        "schemes": Array [],
      },
      "screeningQuestions": Object {
        "includeScreeningQuestions": false,
        "questions": Array [
          "",
        ],
      },
      "workplaceDetails": Object {
        "location": "local",
        "locationType": 1,
      },
    }
  }
  mutators={
    Object {
      "concat": [Function],
      "insert": [Function],
      "move": [Function],
      "pop": [Function],
      "push": [Function],
      "remove": [Function],
      "removeBatch": [Function],
      "shift": [Function],
      "swap": [Function],
      "unshift": [Function],
      "update": [Function],
    }
  }
  onSubmit={[Function]}
  render={[Function]}
>
  <ScreeningQuestionsFields>
    <section>
      <div
        className="flex w-100"
      >
        <Field
          name="screeningQuestions.includeScreeningQuestions"
        >
          <f
            id="screening-questions-checkbox"
            input={
              Object {
                "checked": undefined,
                "name": "screeningQuestions.includeScreeningQuestions",
                "onBlur": [Function],
                "onChange": [Function],
                "onFocus": [Function],
                "value": true,
              }
            }
            label="Include screening questions for applicants to answer (optional)"
          >
            <div
              className="flex CheckBox__checkbox___1b5w4"
            >
              <p
                id="screening-questions-checkbox"
                input={
                  Object {
                    "checked": undefined,
                    "name": "screeningQuestions.includeScreeningQuestions",
                    "onBlur": [Function],
                    "onChange": [Function],
                    "onFocus": [Function],
                    "value": true,
                  }
                }
              >
                <div
                  className="flex"
                >
                  <input
                    checked={true}
                    className="CheckBox__visually-hidden___3Fqi4"
                    id="screening-questions-checkbox"
                    onChange={[Function]}
                    type="checkbox"
                  />
                  <span
                    className="CheckBox__checkmark___3NE08 self-start"
                    onClick={[Function]}
                  />
                </div>
              </p>
              <label
                className="CheckBox__label___2rwv3 pointer pl2 fw6 f5 black-60 "
                htmlFor="screening-questions-checkbox"
              >
                Include screening questions for applicants to answer (optional)
              </label>
            </div>
          </f>
        </Field>
      </div>
      <div
        className="checkboxLabel black-60 pt2"
      >
        This will allow you to include up to 
        <b
          className="fw6"
        >
          3 Yes/No
        </b>
         questions.
      </div>
      <Condition
        is={true}
        when="screeningQuestions.includeScreeningQuestions"
      >
        <Field
          name="screeningQuestions.includeScreeningQuestions"
          subscription={
            Object {
              "value": true,
            }
          }
        >
          <ul
            className="list pl0 ma0"
          >
            <li
              className="flex justify-between pa3 bg-white br3 mv4"
              data-cy="screening-questions-field"
              key="screeningQuestions.questions[0]"
            >
              <div
                className="pa2 textField"
              >
                <Field
                  name="screeningQuestions.questions[0]"
                  validate={[Function]}
                >
                  <xe
                    containerClassName="ma0"
                    id="screening-question"
                    input={
                      Object {
                        "checked": undefined,
                        "name": "screeningQuestions.questions[0]",
                        "onBlur": [Function],
                        "onChange": [Function],
                        "onFocus": [Function],
                        "value": "",
                      }
                    }
                    label="Question"
                    meta={
                      Object {
                        "active": false,
                        "data": Object {},
                        "dirty": false,
                        "dirtySinceLastSubmit": false,
                        "error": "Please fill this in",
                        "initial": "",
                        "invalid": true,
                        "length": undefined,
                        "modified": false,
                        "pristine": true,
                        "submitError": undefined,
                        "submitFailed": false,
                        "submitSucceeded": false,
                        "submitting": false,
                        "touched": false,
                        "valid": false,
                        "validating": false,
                        "visited": false,
                      }
                    }
                    placeholder="Please enter a question"
                  >
                    <div
                      className="ma0"
                    >
                      <label
                        className="mb2 f5 fw6 black-60 pl1 db"
                      >
                        Question
                      </label>
                      <input
                        className="TextInput__input___RvT_B "
                        id="screening-question"
                        onBlur={[Function]}
                        onChange={[Function]}
                        onFocus={[Function]}
                        placeholder="Please enter a question"
                        type="text"
                        value=""
                      />
                    </div>
                  </xe>
                </Field>
                <div
                  className="pt1 black-40"
                >
                  Applicants will choose between Yes/No
                </div>
              </div>
              <div
                className="removeButton ph3"
              >
                <button
                  className="red fw6 bn bg-inherit o-40"
                  data-cy="screening-questions-remove"
                  disabled={true}
                  onClick={[Function]}
                  type="button"
                >
                  Remove
                </button>
              </div>
            </li>
          </ul>
          <button
            className="blue fw6 bn bg-inherit pointer"
            data-cy="screening-questions-add"
            disabled={false}
            onClick={[Function]}
            type="button"
          >
            <i
              className="blueAddIcon mr2"
              title="add-icon"
            />
            Add a question
          </button>
        </Field>
      </Condition>
    </section>
  </ScreeningQuestionsFields>
</ReactFinalForm>
`;

exports[`JobPosting/ScreeningQuestionsFields should not render fields and add button if includeScreeningQuestions is false 1`] = `
<ReactFinalForm
  initialValues={
    Object {
      "jobDescription": Object {
        "isThirdPartyEmployer": false,
        "thirdPartyEmployer": Object {},
      },
      "jobPostingSkills": Object {
        "addedSkills": Array [],
        "recommendedSkills": Array [],
      },
      "keyInformation": Object {
        "jobCategories": Array [],
        "newPostingDate": "2021-10-01",
        "schemes": Array [],
      },
      "screeningQuestions": Object {
        "includeScreeningQuestions": false,
        "questions": Array [
          "",
          "",
          "",
        ],
      },
      "workplaceDetails": Object {
        "location": "local",
        "locationType": 1,
      },
    }
  }
  mutators={
    Object {
      "concat": [Function],
      "insert": [Function],
      "move": [Function],
      "pop": [Function],
      "push": [Function],
      "remove": [Function],
      "removeBatch": [Function],
      "shift": [Function],
      "swap": [Function],
      "unshift": [Function],
      "update": [Function],
    }
  }
  onSubmit={[Function]}
  render={[Function]}
>
  <ScreeningQuestionsFields>
    <section>
      <div
        className="flex w-100"
      >
        <Field
          name="screeningQuestions.includeScreeningQuestions"
        >
          <f
            id="screening-questions-checkbox"
            input={
              Object {
                "checked": undefined,
                "name": "screeningQuestions.includeScreeningQuestions",
                "onBlur": [Function],
                "onChange": [Function],
                "onFocus": [Function],
                "value": false,
              }
            }
            label="Include screening questions for applicants to answer (optional)"
          >
            <div
              className="flex CheckBox__checkbox___1b5w4"
            >
              <p
                id="screening-questions-checkbox"
                input={
                  Object {
                    "checked": undefined,
                    "name": "screeningQuestions.includeScreeningQuestions",
                    "onBlur": [Function],
                    "onChange": [Function],
                    "onFocus": [Function],
                    "value": false,
                  }
                }
              >
                <div
                  className="flex"
                >
                  <input
                    checked={false}
                    className="CheckBox__visually-hidden___3Fqi4"
                    id="screening-questions-checkbox"
                    onChange={[Function]}
                    type="checkbox"
                  />
                  <span
                    className="CheckBox__checkmark___3NE08 self-start"
                    onClick={[Function]}
                  />
                </div>
              </p>
              <label
                className="CheckBox__label___2rwv3 pointer pl2 fw6 f5 black-60 "
                htmlFor="screening-questions-checkbox"
              >
                Include screening questions for applicants to answer (optional)
              </label>
            </div>
          </f>
        </Field>
      </div>
      <div
        className="checkboxLabel black-60 pt2"
      >
        This will allow you to include up to 
        <b
          className="fw6"
        >
          3 Yes/No
        </b>
         questions.
      </div>
      <Condition
        is={true}
        when="screeningQuestions.includeScreeningQuestions"
      >
        <Field
          name="screeningQuestions.includeScreeningQuestions"
          subscription={
            Object {
              "value": true,
            }
          }
        />
      </Condition>
    </section>
  </ScreeningQuestionsFields>
</ReactFinalForm>
`;

exports[`JobPosting/ScreeningQuestionsFields should render ScreeningQuestionsFields initial state checkbox unchecked 1`] = `
<ReactFinalForm
  initialValues={
    Object {
      "jobDescription": Object {
        "isThirdPartyEmployer": false,
        "thirdPartyEmployer": Object {},
      },
      "jobPostingSkills": Object {
        "addedSkills": Array [],
        "recommendedSkills": Array [],
      },
      "keyInformation": Object {
        "jobCategories": Array [],
        "newPostingDate": "2021-10-01",
        "schemes": Array [],
      },
      "screeningQuestions": Object {
        "includeScreeningQuestions": false,
        "questions": Array [
          "",
        ],
      },
      "workplaceDetails": Object {
        "location": "local",
        "locationType": 1,
      },
    }
  }
  mutators={
    Object {
      "concat": [Function],
      "insert": [Function],
      "move": [Function],
      "pop": [Function],
      "push": [Function],
      "remove": [Function],
      "removeBatch": [Function],
      "shift": [Function],
      "swap": [Function],
      "unshift": [Function],
      "update": [Function],
    }
  }
  onSubmit={[Function]}
  render={[Function]}
>
  <ScreeningQuestionsFields>
    <section>
      <div
        className="flex w-100"
      >
        <Field
          name="screeningQuestions.includeScreeningQuestions"
        >
          <f
            id="screening-questions-checkbox"
            input={
              Object {
                "checked": undefined,
                "name": "screeningQuestions.includeScreeningQuestions",
                "onBlur": [Function],
                "onChange": [Function],
                "onFocus": [Function],
                "value": false,
              }
            }
            label="Include screening questions for applicants to answer (optional)"
          >
            <div
              className="flex CheckBox__checkbox___1b5w4"
            >
              <p
                id="screening-questions-checkbox"
                input={
                  Object {
                    "checked": undefined,
                    "name": "screeningQuestions.includeScreeningQuestions",
                    "onBlur": [Function],
                    "onChange": [Function],
                    "onFocus": [Function],
                    "value": false,
                  }
                }
              >
                <div
                  className="flex"
                >
                  <input
                    checked={false}
                    className="CheckBox__visually-hidden___3Fqi4"
                    id="screening-questions-checkbox"
                    onChange={[Function]}
                    type="checkbox"
                  />
                  <span
                    className="CheckBox__checkmark___3NE08 self-start"
                    onClick={[Function]}
                  />
                </div>
              </p>
              <label
                className="CheckBox__label___2rwv3 pointer pl2 fw6 f5 black-60 "
                htmlFor="screening-questions-checkbox"
              >
                Include screening questions for applicants to answer (optional)
              </label>
            </div>
          </f>
        </Field>
      </div>
      <div
        className="checkboxLabel black-60 pt2"
      >
        This will allow you to include up to 
        <b
          className="fw6"
        >
          3 Yes/No
        </b>
         questions.
      </div>
      <Condition
        is={true}
        when="screeningQuestions.includeScreeningQuestions"
      >
        <Field
          name="screeningQuestions.includeScreeningQuestions"
          subscription={
            Object {
              "value": true,
            }
          }
        />
      </Condition>
    </section>
  </ScreeningQuestionsFields>
</ReactFinalForm>
`;

exports[`JobPosting/ScreeningQuestionsFields should render disable add button if there are 3 questions 1`] = `
<ReactFinalForm
  initialValues={
    Object {
      "jobDescription": Object {
        "isThirdPartyEmployer": false,
        "thirdPartyEmployer": Object {},
      },
      "jobPostingSkills": Object {
        "addedSkills": Array [],
        "recommendedSkills": Array [],
      },
      "keyInformation": Object {
        "jobCategories": Array [],
        "newPostingDate": "2021-10-01",
        "schemes": Array [],
      },
      "screeningQuestions": Object {
        "includeScreeningQuestions": true,
        "questions": Array [
          "",
          "",
          "",
        ],
      },
      "workplaceDetails": Object {
        "location": "local",
        "locationType": 1,
      },
    }
  }
  mutators={
    Object {
      "concat": [Function],
      "insert": [Function],
      "move": [Function],
      "pop": [Function],
      "push": [Function],
      "remove": [Function],
      "removeBatch": [Function],
      "shift": [Function],
      "swap": [Function],
      "unshift": [Function],
      "update": [Function],
    }
  }
  onSubmit={[Function]}
  render={[Function]}
>
  <ScreeningQuestionsFields>
    <section>
      <div
        className="flex w-100"
      >
        <Field
          name="screeningQuestions.includeScreeningQuestions"
        >
          <f
            id="screening-questions-checkbox"
            input={
              Object {
                "checked": undefined,
                "name": "screeningQuestions.includeScreeningQuestions",
                "onBlur": [Function],
                "onChange": [Function],
                "onFocus": [Function],
                "value": true,
              }
            }
            label="Include screening questions for applicants to answer (optional)"
          >
            <div
              className="flex CheckBox__checkbox___1b5w4"
            >
              <p
                id="screening-questions-checkbox"
                input={
                  Object {
                    "checked": undefined,
                    "name": "screeningQuestions.includeScreeningQuestions",
                    "onBlur": [Function],
                    "onChange": [Function],
                    "onFocus": [Function],
                    "value": true,
                  }
                }
              >
                <div
                  className="flex"
                >
                  <input
                    checked={true}
                    className="CheckBox__visually-hidden___3Fqi4"
                    id="screening-questions-checkbox"
                    onChange={[Function]}
                    type="checkbox"
                  />
                  <span
                    className="CheckBox__checkmark___3NE08 self-start"
                    onClick={[Function]}
                  />
                </div>
              </p>
              <label
                className="CheckBox__label___2rwv3 pointer pl2 fw6 f5 black-60 "
                htmlFor="screening-questions-checkbox"
              >
                Include screening questions for applicants to answer (optional)
              </label>
            </div>
          </f>
        </Field>
      </div>
      <div
        className="checkboxLabel black-60 pt2"
      >
        This will allow you to include up to 
        <b
          className="fw6"
        >
          3 Yes/No
        </b>
         questions.
      </div>
      <Condition
        is={true}
        when="screeningQuestions.includeScreeningQuestions"
      >
        <Field
          name="screeningQuestions.includeScreeningQuestions"
          subscription={
            Object {
              "value": true,
            }
          }
        >
          <ul
            className="list pl0 ma0"
          >
            <li
              className="flex justify-between pa3 bg-white br3 mv4"
              data-cy="screening-questions-field"
              key="screeningQuestions.questions[0]"
            >
              <div
                className="pa2 textField"
              >
                <Field
                  name="screeningQuestions.questions[0]"
                  validate={[Function]}
                >
                  <xe
                    containerClassName="ma0"
                    id="screening-question"
                    input={
                      Object {
                        "checked": undefined,
                        "name": "screeningQuestions.questions[0]",
                        "onBlur": [Function],
                        "onChange": [Function],
                        "onFocus": [Function],
                        "value": "",
                      }
                    }
                    label="Question"
                    meta={
                      Object {
                        "active": false,
                        "data": Object {},
                        "dirty": false,
                        "dirtySinceLastSubmit": false,
                        "error": "Please fill this in",
                        "initial": "",
                        "invalid": true,
                        "length": undefined,
                        "modified": false,
                        "pristine": true,
                        "submitError": undefined,
                        "submitFailed": false,
                        "submitSucceeded": false,
                        "submitting": false,
                        "touched": false,
                        "valid": false,
                        "validating": false,
                        "visited": false,
                      }
                    }
                    placeholder="Please enter a question"
                  >
                    <div
                      className="ma0"
                    >
                      <label
                        className="mb2 f5 fw6 black-60 pl1 db"
                      >
                        Question
                      </label>
                      <input
                        className="TextInput__input___RvT_B "
                        id="screening-question"
                        onBlur={[Function]}
                        onChange={[Function]}
                        onFocus={[Function]}
                        placeholder="Please enter a question"
                        type="text"
                        value=""
                      />
                    </div>
                  </xe>
                </Field>
                <div
                  className="pt1 black-40"
                >
                  Applicants will choose between Yes/No
                </div>
              </div>
              <div
                className="removeButton ph3"
              >
                <button
                  className="red fw6 bn bg-inherit pointer"
                  data-cy="screening-questions-remove"
                  disabled={false}
                  onClick={[Function]}
                  type="button"
                >
                  Remove
                </button>
              </div>
            </li>
            <li
              className="flex justify-between pa3 bg-white br3 mv4"
              data-cy="screening-questions-field"
              key="screeningQuestions.questions[1]"
            >
              <div
                className="pa2 textField"
              >
                <Field
                  name="screeningQuestions.questions[1]"
                  validate={[Function]}
                >
                  <xe
                    containerClassName="ma0"
                    id="screening-question"
                    input={
                      Object {
                        "checked": undefined,
                        "name": "screeningQuestions.questions[1]",
                        "onBlur": [Function],
                        "onChange": [Function],
                        "onFocus": [Function],
                        "value": "",
                      }
                    }
                    label="Question"
                    meta={
                      Object {
                        "active": false,
                        "data": Object {},
                        "dirty": false,
                        "dirtySinceLastSubmit": false,
                        "error": "Please fill this in",
                        "initial": "",
                        "invalid": true,
                        "length": undefined,
                        "modified": false,
                        "pristine": true,
                        "submitError": undefined,
                        "submitFailed": false,
                        "submitSucceeded": false,
                        "submitting": false,
                        "touched": false,
                        "valid": false,
                        "validating": false,
                        "visited": false,
                      }
                    }
                    placeholder="Please enter a question"
                  >
                    <div
                      className="ma0"
                    >
                      <label
                        className="mb2 f5 fw6 black-60 pl1 db"
                      >
                        Question
                      </label>
                      <input
                        className="TextInput__input___RvT_B "
                        id="screening-question"
                        onBlur={[Function]}
                        onChange={[Function]}
                        onFocus={[Function]}
                        placeholder="Please enter a question"
                        type="text"
                        value=""
                      />
                    </div>
                  </xe>
                </Field>
                <div
                  className="pt1 black-40"
                >
                  Applicants will choose between Yes/No
                </div>
              </div>
              <div
                className="removeButton ph3"
              >
                <button
                  className="red fw6 bn bg-inherit pointer"
                  data-cy="screening-questions-remove"
                  disabled={false}
                  onClick={[Function]}
                  type="button"
                >
                  Remove
                </button>
              </div>
            </li>
            <li
              className="flex justify-between pa3 bg-white br3 mv4"
              data-cy="screening-questions-field"
              key="screeningQuestions.questions[2]"
            >
              <div
                className="pa2 textField"
              >
                <Field
                  name="screeningQuestions.questions[2]"
                  validate={[Function]}
                >
                  <xe
                    containerClassName="ma0"
                    id="screening-question"
                    input={
                      Object {
                        "checked": undefined,
                        "name": "screeningQuestions.questions[2]",
                        "onBlur": [Function],
                        "onChange": [Function],
                        "onFocus": [Function],
                        "value": "",
                      }
                    }
                    label="Question"
                    meta={
                      Object {
                        "active": false,
                        "data": Object {},
                        "dirty": false,
                        "dirtySinceLastSubmit": false,
                        "error": "Please fill this in",
                        "initial": "",
                        "invalid": true,
                        "length": undefined,
                        "modified": false,
                        "pristine": true,
                        "submitError": undefined,
                        "submitFailed": false,
                        "submitSucceeded": false,
                        "submitting": false,
                        "touched": false,
                        "valid": false,
                        "validating": false,
                        "visited": false,
                      }
                    }
                    placeholder="Please enter a question"
                  >
                    <div
                      className="ma0"
                    >
                      <label
                        className="mb2 f5 fw6 black-60 pl1 db"
                      >
                        Question
                      </label>
                      <input
                        className="TextInput__input___RvT_B "
                        id="screening-question"
                        onBlur={[Function]}
                        onChange={[Function]}
                        onFocus={[Function]}
                        placeholder="Please enter a question"
                        type="text"
                        value=""
                      />
                    </div>
                  </xe>
                </Field>
                <div
                  className="pt1 black-40"
                >
                  Applicants will choose between Yes/No
                </div>
              </div>
              <div
                className="removeButton ph3"
              >
                <button
                  className="red fw6 bn bg-inherit pointer"
                  data-cy="screening-questions-remove"
                  disabled={false}
                  onClick={[Function]}
                  type="button"
                >
                  Remove
                </button>
              </div>
            </li>
          </ul>
          <button
            className="blue fw6 bn bg-inherit o-40"
            data-cy="screening-questions-add"
            disabled={true}
            onClick={[Function]}
            type="button"
          >
            <i
              className="blueAddIcon mr2"
              title="add-icon"
            />
            Add a question
          </button>
        </Field>
      </Condition>
    </section>
  </ScreeningQuestionsFields>
</ReactFinalForm>
`;
