// Jest Snapshot v1, https://goo.gl/fbAQLP

exports[`FilterApplicationsButton should display the correct filter button text if numberOfActiveFilters is 0 1`] = `
<FilterApplicationsButton
  numberOfActiveFilters={0}
  onClick={[Function]}
>
  <a
    className="br1 flex no-underline pa2 ma3 white bg-white primary ba b--primary pointer filterModalButton"
    data-cy="filter-modal-button"
    onClick={[Function]}
  >
    <div
      className="flex w-100 justify-around items-center"
    >
      <i
        className="db mr2 w-50 relative iconFilterFunnel"
      />
      <span
        className="f6 fw6 tl w-50 db mr2"
      >
        Filter
      </span>
    </div>
  </a>
</FilterApplicationsButton>
`;

exports[`FilterApplicationsButton should display the correct filter button text if numberOfActiveFilters is 1 1`] = `
<FilterApplicationsButton
  numberOfActiveFilters={1}
  onClick={[Function]}
>
  <a
    className="br1 flex no-underline pa2 ma3 white bg-primary primary ba b--primary pointer filterModalButton"
    data-cy="filter-modal-button"
    onClick={[Function]}
  >
    <div
      className="flex w-100 justify-around items-center"
    >
      <i
        className="db mr2 w-20 relative white iconFilterFunnelActive"
      />
      <span
        className="f6 fw6 tl w-80 db mr2 white"
      >
        1
         Filter
         applied
      </span>
    </div>
  </a>
</FilterApplicationsButton>
`;

exports[`FilterApplicationsButton should display the correct filter button text if numberOfActiveFilters is 10 1`] = `
<FilterApplicationsButton
  numberOfActiveFilters={10}
  onClick={[Function]}
>
  <a
    className="br1 flex no-underline pa2 ma3 white bg-primary primary ba b--primary pointer filterModalButton"
    data-cy="filter-modal-button"
    onClick={[Function]}
  >
    <div
      className="flex w-100 justify-around items-center"
    >
      <i
        className="db mr2 w-20 relative white iconFilterFunnelActive"
      />
      <span
        className="f6 fw6 tl w-80 db mr2 white"
      >
        10
         Filter
        s
         applied
      </span>
    </div>
  </a>
</FilterApplicationsButton>
`;
